{
  "images" : [
    {
      "filename" : "48x48-unblock.png",
      "idiom" : "universal",
      "scale" : "1x"
    },
    {
      "filename" : "96x96-unblock.png",
      "idiom" : "universal",
      "scale" : "2x"
    },
    {
      "filename" : "144x144-unblock.png",
      "idiom" : "universal",
      "scale" : "3x"
    }
  ],
  "info" : {
    "author" : "xcode",
    "version" : 1
  }
}
